{
    "KPlugin": {
        "Authors": [
            {
                "Email": "kinta@communia.org",
                "Name": "Aleix Quintana Alsius"
           }
        ],
        "Category": "Utilities",
        "Description": "Show shortcuts for the choosen or the current app",
        "EnabledByDefault": true,
        "Icon": "configure-shortcuts",
        "Id": "org.communia.shortcuts",
        "License": "GPL-2.0+",
        "Name": "shortcuts",
        "ServiceTypes": [
            "Plasma/Applet"
        ],
        "Version": "1.0",
        "Website": "https://gitlab.com/aleixq/plasma-shortcuts"
    },
    "X-Plasma-NotificationArea": true,
    "X-Plasma-API": "declarativeappletscript",
    "X-Plasma-MainScript": "ui/main.qml"
}
